{
    "cols": "domain_match, source_companyname, match_domain_country, match_name_country, match_name_domain",
    "usengram": true,
    "levenshtein": "1",
    "PreferenceCol": "source",
    "PreferenceColValue": "Avention",
    "DebugTrigger": false
}